DS202W - DS202W - Summer Summative (‘Exam’)
…
Q5 - Sentiment Analysis

Here onwards I begin sentiment analysis using the dictionary AFINN to gather my list of positive and negative words. These words also have a respective positive and negative score which I could use to compare reviews to see which are relatively more negative or positive than others. Doing so could allow me to find my competitors in the drug market and tell me who I don’t need to worry about.

AFINN <- get_sentiments("afinn")

AFINN

# A tibble: 2,477 × 2
   word       value
   <chr>      <dbl>
 1 abandon       -2
 2 abandoned     -2
 3 abandons      -2
 4 abducted      -2
 5 abduction     -2
 6 abductions    -2
 7 abhor         -3
 8 abhorred      -3
 9 abhorrent     -3
10 abhors        -3
# ℹ 2,467 more rows
…
