DS202W Sum 3 Q2
…
rf_tune_results <- 
  rf_tune_wf %>% 
  tune_grid(
    resamples = folds,
    grid = tree_grid_trial
    )

View(rf_tune_results)

set.seed(23007)

rf_tune_results %>% 
  collect_metrics()

# A tibble: 50 × 8
   trees min_n .metric  .estimator  mean     n std_err .config              
   <int> <int> <chr>    <chr>      <dbl> <int>   <dbl> <chr>                
 1     1     2 accuracy binary     0.645    10 0.0392  Preprocessor1_Model01
 2     1     2 roc_auc  binary     0.649    10 0.0403  Preprocessor1_Model01
 3   500     2 accuracy binary     0.747    10 0.0110  Preprocessor1_Model02
 4   500     2 roc_auc  binary     0.838    10 0.00826 Preprocessor1_Model02
 5  1000     2 accuracy binary     0.738    10 0.0112  Preprocessor1_Model03
 6  1000     2 roc_auc  binary     0.834    10 0.00681 Preprocessor1_Model03
 7  1500     2 accuracy binary     0.743    10 0.00934 Preprocessor1_Model04
 8  1500     2 roc_auc  binary     0.836    10 0.00738 Preprocessor1_Model04
 9  2000     2 accuracy binary     0.74     10 0.00974 Preprocessor1_Model05
10  2000     2 roc_auc  binary     0.835    10 0.00833 Preprocessor1_Model05
# ℹ 40 more rows
…
# Extract cluster assignments from kclust
cluster_assignments <- augment(kclust, pca_results) %>%
  select(.cluster, post_id)  # Select only .cluster and post_id columns

# Combine with post_id from pca_results
cluster_data <- left_join(cluster_assignments, pca_results, by = "post_id")

cluster_assignments

# A tibble: 997 × 2
   .cluster post_id
   <fct>    <fct>  
 1 4        11t0pyf
 2 2        11t7o0j
 3 2        11t9u95
 4 4        11tgzva
 5 2        11tkmir
 6 2        11tnzea
 7 4        11toxgx
 8 5        11tqcaf
 9 5        11ttyna
10 4        11u08ib
# ℹ 987 more rows
…
# Join cluster_assignments with post_comments_data to get corresponding post_id
post_ids_by_cluster_with_comments <- cluster_assignments %>%
  left_join(post_comment_data, by = c("post_id" = "post_id")) %>%
  select(post_id, subreddit, .cluster) %>% distinct()

# Print the result
print(post_ids_by_cluster_with_comments)

# A tibble: 997 × 3
   post_id subreddit       .cluster
   <chr>   <chr>           <fct>   
 1 11t0pyf r/OldSchoolCool 4       
 2 11t7o0j r/funny         2       
 3 11t9u95 r/aww           2       
 4 11tgzva r/funny         4       
 5 11tkmir r/aww           2       
 6 11tnzea r/gaming        2       
 7 11toxgx r/pics          4       
 8 11tqcaf r/UpliftingNews 5       
 9 11ttyna r/worldnews     5       
10 11u08ib r/movies        4       
# ℹ 987 more rows
…
